[

    {    "fullname": "Dayashankar",
        "username": "daya",
        "userId": 123,
        "mobileNo": 8123884346,
        "address1": "abcd",
        "address2": "asda",
        "country": "India",
        "state": "Karnataka",
        "city": "Banglore",
        "zip": 560021,
        "email": "daya81291@gmail.com",
        "passowrd": "12345aaa",
        "confirm_password": "12345aaa",
        "packages": "string"
    },
    {    "fullname": "Elephanttree",
        "username": "Elephant",
        "userId": 1234,
        "mobileNo": 8100000000,
        "address1": "hgh",
        "address2": "hhk",
        "country": "India",
        "state": "Karnataka",
        "city": "Banglore",
        "zip": 560086,
        "email": "elep@gmail.com",
        "passowrd": "0000",
        "confirm_password": "0000",
        "packages": "string"
    },
    {    "fullname": "ttree",
        "username": "Ehant",
        "userId": 12354654,
        "mobileNo": 8108453210,
        "address1": "hgh",
        "address2": "hhk",
        "country": "India",
        "state": "Karnataka",
        "city": "Banglore",
        "zip": 560086,
        "email": "elep@gmail.com",
        "passowrd": "0000",
        "confirm_password": "0000",
        "packages": "string"
    },
    {    "fullname": "Dayashankar",
        "username": "daya",
        "userId": 123,
        "mobileNo": 8123884346,
        "address1": "abcd",
        "address2": "asda",
        "country": "India",
        "state": "Karnataka",
        "city": "Banglore",
        "zip": 560021,
        "email": "daya81291@gmail.com",
        "passowrd": "12345aaa",
        "confirm_password": "12345aaa",
        "packages": "string"
    },
    {    "fullname": "Dayashankar",
        "username": "daya",
        "userId": 123,
        "mobileNo": 8123884346,
        "address1": "abcd",
        "address2": "asda",
        "country": "India",
        "state": "Karnataka",
        "city": "Banglore",
        "zip": 560021,
        "email": "daya81291@gmail.com",
        "passowrd": "12345aaa",
        "confirm_password": "12345aaa",
        "packages": "string"
    },
    {    "fullname": "Dayashankar",
        "username": "daya",
        "userId": 123,
        "mobileNo": 8123884346,
        "address1": "abcd",
        "address2": "asda",
        "country": "India",
        "state": "Karnataka",
        "city": "Banglore",
        "zip": 560021,
        "email": "daya81291@gmail.com",
        "passowrd": "12345aaa",
        "confirm_password": "12345aaa",
        "packages": "string"
    }


]